----------------------------------------------------------------------------------------------------
----------------------------------------------------------------------------------------------------
CONTEXT (parameters) : uGT.AMC13
----------------------------------------------------------------------------------------------------
----------------------------------------------------------------------------------------------------
----------------------------------------------------------------------------------------------------
CONTEXT (parameters) : uGT.daqttcs
----------------------------------------------------------------------------------------------------
 configDAQ.bcnOffset : 3541
 configDAQ.slinkMask : 1
 configTCC.localTTC : false
 configTCC.ocrCmd : 8
 configTCC.resyncCmd : 4
 reboot.timeout : 90
----------------------------------------------------------------------------------------------------
----------------------------------------------------------------------------------------------------
CONTEXT (parameters) : uGT.MP7_slot6
----------------------------------------------------------------------------------------------------
 sdfile : gt_mp7_xe_v1132_module_5.bin
 uGtVersion.module_id : 5
----------------------------------------------------------------------------------------------------
----------------------------------------------------------------------------------------------------
CONTEXT (parameters) : uGT.MP7_slot5
----------------------------------------------------------------------------------------------------
 sdfile : gt_mp7_xe_v1132_module_4.bin
 uGtVersion.module_id : 4
----------------------------------------------------------------------------------------------------
----------------------------------------------------------------------------------------------------
CONTEXT (parameters) : uGT.MP7_slot4
----------------------------------------------------------------------------------------------------
 sdfile : gt_mp7_xe_v1132_module_3.bin
 uGtVersion.module_id : 3
----------------------------------------------------------------------------------------------------
----------------------------------------------------------------------------------------------------
CONTEXT (parameters) : uGT.MP7_slot3
----------------------------------------------------------------------------------------------------
 sdfile : gt_mp7_xe_v1132_module_2.bin
 uGtVersion.module_id : 2
----------------------------------------------------------------------------------------------------
----------------------------------------------------------------------------------------------------
CONTEXT (parameters) : uGT.uGtProcessor
----------------------------------------------------------------------------------------------------
 algoLatency : 45
 algorithmBxMask : {"rows":1,"cols":3,"definition":[["algo","string"],["mask","unsigned int"],["range","string"]],"data":[["ALL",1,"ALL"]]}
 alignMGTs_Calo.alignMGTs.bx : 3526
 alignMGTs_Calo.alignMGTs.cycle : 5
 alignMGTs_Calo.alignMGTs.ids : CaloRx[00:07]
 alignMGTs_Calo.alignMGTs.masks : apply
 alignMGTs_ExtCond.alignMGTs.bx : 3526
 alignMGTs_ExtCond.alignMGTs.cycle : 5
 alignMGTs_ExtCond.alignMGTs.ids : ExtCondRx[00:01]
 alignMGTs_ExtCond.alignMGTs.masks : apply
 alignMGTs_Muon.alignMGTs.bx : 3526
 alignMGTs_Muon.alignMGTs.cycle : 5
 alignMGTs_Muon.alignMGTs.ids : MuonRx[00:04]
 alignMGTs_Muon.alignMGTs.masks : apply
 cfgRxBuffers_Calo.cfgRxBuffers.ids : CaloRx[00:07]
 cfgRxBuffers_Calo.cfgRxBuffers.masks : invert
 cfgRxBuffers_Calo.cfgRxBuffers.mode : Zeroes
 cfgRxBuffers_Calo.cfgRxBuffers.payload : 
 cfgRxBuffers_Calo.cfgRxBuffers.startBx : 0
 cfgRxBuffers_Calo.cfgRxBuffers.startCycle : 0
 cfgRxBuffers_Calo.cfgRxBuffers.stopBx : NaN
 cfgRxBuffers_Calo.cfgRxBuffers.stopCycle : NaN
 cfgRxBuffers_ExtCond.cfgRxBuffers.ids : ExtCondRx[00:01]
 cfgRxBuffers_ExtCond.cfgRxBuffers.masks : ignore
 cfgRxBuffers_ExtCond.cfgRxBuffers.mode : Zeroes
 cfgRxBuffers_ExtCond.cfgRxBuffers.payload : 
 cfgRxBuffers_ExtCond.cfgRxBuffers.startBx : 0
 cfgRxBuffers_ExtCond.cfgRxBuffers.startCycle : 0
 cfgRxBuffers_ExtCond.cfgRxBuffers.stopBx : NaN
 cfgRxBuffers_ExtCond.cfgRxBuffers.stopCycle : NaN
 cfgRxBuffers_Muon.cfgRxBuffers.ids : MuonRx[00:04]
 cfgRxBuffers_Muon.cfgRxBuffers.masks : invert
 cfgRxBuffers_Muon.cfgRxBuffers.mode : Zeroes
 cfgRxBuffers_Muon.cfgRxBuffers.payload : 
 cfgRxBuffers_Muon.cfgRxBuffers.startBx : 0
 cfgRxBuffers_Muon.cfgRxBuffers.startCycle : 0
 cfgRxBuffers_Muon.cfgRxBuffers.stopBx : NaN
 cfgRxBuffers_Muon.cfgRxBuffers.stopCycle : NaN
 cfgRxMGTs_Calo.cfgRxMGTs.ids : CaloRx[00:07]
 cfgRxMGTs_Calo.cfgRxMGTs.masks : apply
 cfgRxMGTs_Calo.cfgRxMGTs.orbitTag : false
 cfgRxMGTs_Calo.cfgRxMGTs.polarity : true
 cfgRxMGTs_ExtCond.cfgRxMGTs.ids : ExtCondRx[00:01]
 cfgRxMGTs_ExtCond.cfgRxMGTs.masks : apply
 cfgRxMGTs_ExtCond.cfgRxMGTs.orbitTag : false
 cfgRxMGTs_ExtCond.cfgRxMGTs.polarity : true
 cfgRxMGTs_Muon.cfgRxMGTs.ids : MuonRx[00:04]
 cfgRxMGTs_Muon.cfgRxMGTs.masks : apply
 cfgRxMGTs_Muon.cfgRxMGTs.orbitTag : false
 cfgRxMGTs_Muon.cfgRxMGTs.polarity : true
 easyRxLatency.bankId : 2
 easyRxLatency.ids : 
 easyRxLatency.masks : apply
 easyTxLatency.bankId : 1
 easyTxLatency.ids : 
 finorMask : {"rows":1,"cols":2,"definition":[["algo","string"],["mask","unsigned int"]],"data":[["ALL",1]]}
 index : 1
 internalLatency : 32
 masterLatency : 163
 prescales : {"rows":357,"cols":10,"definition":[["0:Emergency Cosmics","unsigned int"],["1:Cosmics","unsigned int"],["2:Index 1 Cosmics + SingleJet16","unsigned int"],["3:Index 2 Cosmics + High Random","unsigned int"],["4:Index 3 Cosmics + Medium Random","unsigned int"],["5:Index 4 Muons Only","unsigned int"],["6:Index 5 High EG","unsigned int"],["7:Index 6 High Jets","unsigned int"],["8:Index 7 HighBPTX","unsigned int"],["algo/prescale-index","string"]],"data":[[1,1,1,1,1,1,1,1,1,"L1_SingleMuCosmics"],[1,1,1,1,1,1,1,1,1,"L1_SingleMuCosmics_BMTF"],[1,1,1,1,1,1,1,1,1,"L1_SingleMuCosmics_OMTF"],[1,1,1,1,1,1,1,1,1,"L1_SingleMuCosmics_EMTF"],[1,1,1,1,1,1,1,1,1,"L1_SingleMuOpen"],[0,0,0,0,0,0,0,0,0,"L1_SingleMu0_DQ"],[1,1,1,1,1,1,1,1,1,"L1_SingleMu0_BMTF"],[1,1,1,1,1,1,1,1,1,"L1_SingleMu0_OMTF"],[1,1,1,1,1,1,1,1,1,"L1_SingleMu0_EMTF"],[1,1,1,1,1,1,1,1,1,"L1_SingleMu3"],[1,1,1,1,1,1,1,1,1,"L1_SingleMu5"],[0,0,0,0,0,0,0,0,0,"L1_SingleMu7_DQ"],[1,1,1,1,1,1,1,1,1,"L1_SingleMu7"],[0,0,0,0,0,0,0,0,0,"L1_SingleMu12_DQ_BMTF"],[0,0,0,0,0,0,0,0,0,"L1_SingleMu12_DQ_OMTF"],[0,0,0,0,0,0,0,0,0,"L1_SingleMu12_DQ_EMTF"],[0,0,0,0,0,0,0,0,0,"L1_SingleMu15_DQ"],[1,1,1,1,1,1,1,1,1,"L1_SingleMu18"],[1,1,1,1,1,1,1,1,1,"L1_SingleMu20"],[1,1,1,1,1,1,1,1,1,"L1_SingleMu22"],[1,1,1,1,1,1,1,1,1,"L1_SingleMu22_BMTF"],[1,1,1,1,1,1,1,1,1,"L1_SingleMu22_OMTF"],[1,1,1,1,1,1,1,1,1,"L1_SingleMu22_EMTF"],[1,1,1,1,1,1,1,1,1,"L1_SingleMu25"],[0,0,0,0,0,0,0,0,0,"L1_SingleMu6er1p5"],[0,0,0,0,0,0,0,0,0,"L1_SingleMu7er1p5"],[0,0,0,0,0,0,0,0,0,"L1_SingleMu8er1p5"],[0,0,0,0,0,0,0,0,0,"L1_SingleMu9er1p5"],[0,0,0,0,0,0,0,0,0,"L1_SingleMu10er1p5"],[0,0,0,0,0,0,0,0,0,"L1_SingleMu12er1p5"],[0,0,0,0,0,0,0,0,0,"L1_SingleMu14er1p5"],[0,0,0,0,0,0,0,0,0,"L1_SingleMu16er1p5"],[0,0,0,0,0,0,0,0,0,"L1_SingleMu18er1p5"],[0,0,0,0,0,0,0,0,0,"L1_DoubleMu0_OQ"],[1,1,1,1,1,1,1,1,1,"L1_DoubleMu0"],[0,0,0,0,0,0,0,0,0,"L1_DoubleMu0_SQ"],[0,0,0,0,0,0,0,0,0,"L1_DoubleMu0_SQ_OS"],[0,0,0,0,0,0,0,0,0,"L1_DoubleMu0_Mass_Min1"],[0,0,0,0,0,0,0,0,0,"L1_DoubleMu8_SQ"],[0,0,0,0,0,0,0,0,0,"L1_DoubleMu9_SQ"],[1,1,1,1,1,1,1,1,1,"L1_DoubleMu_12_5"],[0,0,0,0,0,0,0,0,0,"L1_DoubleMu_15_5_SQ"],[1,1,1,1,1,1,1,1,1,"L1_DoubleMu_15_7"],[0,0,0,0,0,0,0,0,0,"L1_DoubleMu_15_7_SQ"],[0,0,0,0,0,0,0,0,0,"L1_DoubleMu_15_7_Mass_Min1"],[1,1,1,1,1,1,1,1,1,"L1_DoubleMu18er2p1"],[0,0,0,0,0,0,0,0,0,"L1_DoubleMu0er2p0_SQ_dR_Max1p4"],[0,0,0,0,0,0,0,0,0,"L1_DoubleMu0er2p0_SQ_OS_dR_Max1p4"],[0,0,0,0,0,0,0,0,0,"L1_DoubleMu0er1p5_SQ"],[0,0,0,0,0,0,0,0,0,"L1_DoubleMu0er1p5_SQ_OS"],[0,0,0,0,0,0,0,0,0,"L1_DoubleMu0er1p5_SQ_dR_Max1p4"],[0,0,0,0,0,0,0,0,0,"L1_DoubleMu0er1p5_SQ_OS_dR_Max1p4"],[0,0,0,0,0,0,0,0,0,"L1_DoubleMu0er1p4_SQ_OS_dR_Max1p4"],[0,0,0,0,0,0,0,0,0,"L1_DoubleMu4_SQ_OS"],[0,0,0,0,0,0,0,0,0,"L1_DoubleMu4_SQ_OS_dR_Max1p2"],[0,0,0,0,0,0,0,0,0,"L1_DoubleMu4p5_SQ_OS"],[0,0,0,0,0,0,0,0,0,"L1_DoubleMu4p5_SQ_OS_dR_Max1p2"],[0,0,0,0,0,0,0,0,0,"L1_DoubleMu4p5er2p0_SQ_OS"],[0,0,0,0,0,0,0,0,0,"L1_DoubleMu4p5er2p0_SQ_OS_Mass_Min7"],[0,0,0,0,0,0,0,0,0,"L1_DoubleMu4p5er2p0_SQ_OS_Mass7to18"],[0,0,0,0,0,0,0,0,0,"L1_TripleMu0_OQ"],[1,1,1,1,1,1,1,1,1,"L1_TripleMu0"],[0,0,0,0,0,0,0,0,0,"L1_TripleMu0_SQ"],[1,1,1,1,1,1,1,1,1,"L1_TripleMu3"],[0,0,0,0,0,0,0,0,0,"L1_TripleMu3_SQ"],[0,0,0,0,0,0,0,0,0,"L1_TripleMu_5SQ_3SQ_0OQ"],[0,0,0,0,0,0,0,0,0,"L1_TripleMu_5_3p5_2p5"],[1,1,1,1,1,1,1,1,1,"L1_TripleMu_5_3_3"],[0,0,0,0,0,0,0,0,0,"L1_TripleMu_5_3_3_SQ"],[1,1,1,1,1,1,1,1,1,"L1_TripleMu_5_5_3"],[0,0,0,0,0,0,0,0,0,"L1_TripleMu_5_3p5_2p5_OQ_DoubleMu_5_2p5_OQ_OS_Mass_5to17"],[0,0,0,0,0,0,0,0,0,"L1_TripleMu_5_3p5_2p5_DoubleMu_5_2p5_OS_Mass_5to17"],[0,0,0,0,0,0,0,0,0,"L1_TripleMu_5_4_2p5_DoubleMu_5_2p5_OS_Mass_5to17"],[0,0,0,0,0,0,0,0,0,"L1_TripleMu_5SQ_3SQ_0OQ_DoubleMu_5_3_SQ_OS_Mass_Max9"],[0,0,0,0,0,0,0,0,0,"L1_TripleMu_5SQ_3SQ_0_DoubleMu_5_3_SQ_OS_Mass_Max9"],[0,0,0,0,0,0,0,0,0,"L1_QuadMu0_OQ"],[1,1,1,1,1,1,1,1,1,"L1_QuadMu0"],[0,0,0,0,0,0,0,0,0,"L1_QuadMu0_SQ"],[0,0,0,0,0,0,0,0,0,"L1_Mu5_EG23er2p5"],[0,0,0,0,0,0,0,0,0,"L1_Mu7_EG20er2p5"],[0,0,0,0,0,0,0,0,0,"L1_Mu7_EG23er2p5"],[0,0,0,0,0,0,0,0,0,"L1_Mu20_EG10er2p5"],[0,0,0,0,0,0,0,0,0,"L1_Mu5_LooseIsoEG20er2p5"],[0,0,0,0,0,0,0,0,0,"L1_Mu7_LooseIsoEG20er2p5"],[0,0,0,0,0,0,0,0,0,"L1_Mu7_LooseIsoEG23er2p5"],[0,0,0,0,0,0,0,0,0,"L1_Mu6_DoubleEG10er2p5"],[0,0,0,0,0,0,0,0,0,"L1_Mu6_DoubleEG12er2p5"],[0,0,0,0,0,0,0,0,0,"L1_Mu6_DoubleEG15er2p5"],[0,0,0,0,0,0,0,0,0,"L1_Mu6_DoubleEG17er2p5"],[0,0,0,0,0,0,0,0,0,"L1_DoubleMu4_SQ_EG9er2p5"],[0,0,0,0,0,0,0,0,0,"L1_DoubleMu5_SQ_EG9er2p5"],[0,0,0,0,0,0,0,0,0,"L1_DoubleMu3_OS_DoubleEG7p5Upsilon"],[0,0,0,0,0,0,0,0,0,"L1_DoubleMu5Upsilon_OS_DoubleEG3"],[0,0,0,0,0,0,0,0,0,"L1_Mu3_Jet30er2p5"],[0,0,0,0,0,0,0,0,0,"L1_Mu3_Jet16er2p5_dR_Max0p4"],[0,0,0,0,0,0,0,0,0,"L1_Mu3_Jet35er2p5_dR_Max0p4"],[0,0,0,0,0,0,0,0,0,"L1_Mu3_Jet60er2p5_dR_Max0p4"],[0,0,0,0,0,0,0,0,0,"L1_Mu3_Jet80er2p5_dR_Max0p4"],[0,0,0,0,0,0,0,0,0,"L1_Mu3_Jet120er2p5_dR_Max0p8"],[0,0,0,0,0,0,0,0,0,"L1_Mu3_Jet120er2p5_dR_Max0p4"],[0,0,0,0,0,0,0,0,0,"L1_Mu3er1p5_Jet100er2p5_ETMHF40"],[0,0,0,0,0,0,0,0,0,"L1_Mu3er1p5_Jet100er2p5_ETMHF50"],[0,0,0,0,0,0,0,0,0,"L1_Mu6_HTT240er"],[0,0,0,0,0,0,0,0,0,"L1_Mu6_HTT250er"],[0,0,0,0,0,0,0,0,0,"L1_Mu10er2p3_Jet32er2p3_dR_Max0p4_DoubleJet32er2p3_dEta_Max1p6"],[0,0,0,0,0,0,0,0,0,"L1_Mu12er2p3_Jet40er2p3_dR_Max0p4_DoubleJet40er2p3_dEta_Max1p6"],[0,0,0,0,0,0,0,0,0,"L1_Mu12er2p3_Jet40er2p1_dR_Max0p4_DoubleJet40er2p1_dEta_Max1p6"],[0,0,0,0,0,0,0,0,0,"L1_DoubleMu0_dR_Max1p6_Jet90er2p5_dR_Max0p8"],[0,0,0,0,0,0,0,0,0,"L1_DoubleMu3_dR_Max1p6_Jet90er2p5_dR_Max0p8"],[0,0,0,0,0,0,0,0,0,"L1_DoubleMu3_SQ_ETMHF50_HTT60er"],[0,0,0,0,0,0,0,0,0,"L1_DoubleMu3_SQ_ETMHF50_Jet60er2p5_OR_DoubleJet40er2p5"],[0,0,0,0,0,0,0,0,0,"L1_DoubleMu3_SQ_ETMHF50_Jet60er2p5"],[0,0,0,0,0,0,0,0,0,"L1_DoubleMu3_SQ_ETMHF60_Jet60er2p5"],[0,0,0,0,0,0,0,0,0,"L1_DoubleMu3_SQ_HTT220er"],[0,0,0,0,0,0,0,0,0,"L1_DoubleMu3_SQ_HTT240er"],[0,0,0,0,0,0,0,0,0,"L1_DoubleMu3_SQ_HTT260er"],[0,1,1,1,1,1,0,0,0,"L1_Mu0upt20ip0"],[0,1,1,1,1,1,0,0,0,"L1_Mu0upt20ip1"],[0,1,1,1,1,1,0,0,0,"L1_Mu0upt20ip2"],[0,1,1,1,1,1,0,0,0,"L1_Mu0upt20ip3"],[0,1,1,1,1,1,0,0,0,"L1_Mu0upt20ip03"],[0,1,1,1,1,1,0,0,0,"L1_Mu0upt0"],[0,1,1,1,1,1,0,0,0,"L1_Mu0upt5"],[0,1,1,1,1,1,0,0,0,"L1_Mu0upt10"],[0,1,1,1,1,1,0,0,0,"L1_Mu0upt20"],[0,1,1,1,1,1,0,0,0,"L1_Mu0upt50"],[0,1,1,1,1,1,0,0,0,"L1_Mu0upt100"],[0,1,1,1,1,1,0,0,0,"L1_SingleMuOpenupt5"],[0,1,1,1,1,1,0,0,0,"L1_SingleMuOpenupt20"],[0,1,1,1,1,1,0,0,0,"L1_SingleMuOpenupt100"],[0,0,0,0,0,0,0,0,0,"L1_SingleEG8er2p5"],[0,0,0,0,0,0,0,0,0,"L1_SingleEG10er2p5"],[0,0,0,0,0,0,0,0,0,"L1_SingleEG15er2p5"],[0,0,0,0,0,0,0,0,0,"L1_SingleEG26er2p5"],[0,0,0,0,0,0,0,0,0,"L1_SingleEG28_FWD2p5"],[0,0,0,0,0,0,0,0,0,"L1_SingleEG28er2p5"],[0,0,0,0,0,0,0,0,0,"L1_SingleEG28er2p1"],[0,0,0,0,0,0,0,0,0,"L1_SingleEG28er1p5"],[1,1,1,1,1,0,10000,1,1,"L1_SingleEG34er2p5"],[1,1,1,1,1,0,10000,1,1,"L1_SingleEG36er2p5"],[1,1,1,1,1,0,10000,1,1,"L1_SingleEG38er2p5"],[1,1,1,1,1,0,10000,1,1,"L1_SingleEG40er2p5"],[1,1,1,1,1,0,10000,1,1,"L1_SingleEG42er2p5"],[0,0,0,0,0,0,0,0,0,"L1_SingleEG45er2p5"],[1,1,1,1,1,0,10000,1,1,"L1_SingleEG50"],[0,0,0,0,0,0,0,0,0,"L1_SingleEG60"],[0,0,0,0,0,0,0,0,0,"L1_SingleLooseIsoEG26er2p5"],[0,0,0,0,0,0,0,0,0,"L1_SingleLooseIsoEG26er1p5"],[0,0,0,0,0,0,0,0,0,"L1_SingleLooseIsoEG28_FWD2p5"],[0,0,0,0,0,0,0,0,0,"L1_SingleLooseIsoEG28er2p5"],[0,0,0,0,0,0,0,0,0,"L1_SingleLooseIsoEG28er2p1"],[0,0,0,0,0,0,0,0,0,"L1_SingleLooseIsoEG28er1p5"],[0,0,0,0,0,0,0,0,0,"L1_SingleLooseIsoEG30er2p5"],[0,0,0,0,0,0,0,0,0,"L1_SingleLooseIsoEG30er1p5"],[1,1,1,1,1,0,10000,1,1,"L1_SingleIsoEG24er2p1"],[0,0,0,0,0,0,0,0,0,"L1_SingleIsoEG24er1p5"],[1,1,1,1,1,0,10000,1,1,"L1_SingleIsoEG26er2p5"],[1,1,1,1,1,0,10000,1,1,"L1_SingleIsoEG26er2p1"],[0,0,0,0,0,0,0,0,0,"L1_SingleIsoEG26er1p5"],[0,0,0,0,0,0,0,0,0,"L1_SingleIsoEG28_FWD2p5"],[1,1,1,1,1,0,10000,1,1,"L1_SingleIsoEG28er2p5"],[1,1,1,1,1,0,10000,1,1,"L1_SingleIsoEG28er2p1"],[0,0,0,0,0,0,0,0,0,"L1_SingleIsoEG28er1p5"],[1,1,1,1,1,0,10000,1,1,"L1_SingleIsoEG30er2p5"],[1,1,1,1,1,0,10000,1,1,"L1_SingleIsoEG30er2p1"],[1,1,1,1,1,0,10000,1,1,"L1_SingleIsoEG32er2p5"],[1,1,1,1,1,0,10000,1,1,"L1_SingleIsoEG32er2p1"],[1,1,1,1,1,0,10000,1,1,"L1_SingleIsoEG34er2p5"],[0,0,0,0,0,0,0,0,0,"L1_IsoEG32er2p5_Mt40"],[0,0,0,0,0,0,0,0,0,"L1_IsoEG32er2p5_Mt44"],[0,0,0,0,0,0,0,0,0,"L1_IsoEG32er2p5_Mt48"],[0,0,0,0,0,0,0,0,0,"L1_DoubleEG_15_10_er2p5"],[0,0,0,0,0,0,0,0,0,"L1_DoubleEG_20_10_er2p5"],[0,0,0,0,0,0,0,0,0,"L1_DoubleEG_22_10_er2p5"],[0,0,0,0,0,0,0,0,0,"L1_DoubleEG_25_12_er2p5"],[0,0,0,0,0,0,0,0,0,"L1_DoubleEG_25_14_er2p5"],[0,0,0,0,0,0,0,0,0,"L1_DoubleEG_27_14_er2p5"],[0,0,0,0,0,0,0,0,0,"L1_DoubleEG_LooseIso20_10_er2p5"],[0,0,0,0,0,0,0,0,0,"L1_DoubleEG_LooseIso22_10_er2p5"],[0,0,0,0,0,0,0,0,0,"L1_DoubleEG_LooseIso22_12_er2p5"],[0,0,0,0,0,0,0,0,0,"L1_DoubleEG_LooseIso25_12_er2p5"],[1,1,1,1,1,0,10000,1,1,"L1_DoubleLooseIsoEG22er2p1"],[1,1,1,1,1,0,10000,1,1,"L1_DoubleLooseIsoEG24er2p1"],[0,0,0,0,0,0,0,0,0,"L1_TripleEG_16_12_8_er2p5"],[0,0,0,0,0,0,0,0,0,"L1_TripleEG_16_15_8_er2p5"],[0,0,0,0,0,0,0,0,0,"L1_TripleEG_18_17_8_er2p5"],[0,0,0,0,0,0,0,0,0,"L1_TripleEG_18_18_12_er2p5"],[0,0,0,0,0,0,0,0,0,"L1_TripleEG16er2p5"],[0,0,0,0,0,0,0,0,0,"L1_LooseIsoEG26er2p1_Jet34er2p5_dR_Min0p3"],[0,0,0,0,0,0,0,0,0,"L1_LooseIsoEG28er2p1_Jet34er2p5_dR_Min0p3"],[0,0,0,0,0,0,0,0,0,"L1_LooseIsoEG30er2p1_Jet34er2p5_dR_Min0p3"],[0,0,0,0,0,0,0,0,0,"L1_LooseIsoEG24er2p1_HTT100er"],[0,0,0,0,0,0,0,0,0,"L1_LooseIsoEG26er2p1_HTT100er"],[0,0,0,0,0,0,0,0,0,"L1_LooseIsoEG28er2p1_HTT100er"],[0,0,0,0,0,0,0,0,0,"L1_LooseIsoEG30er2p1_HTT100er"],[0,0,0,0,0,0,0,0,0,"L1_DoubleEG8er2p5_HTT260er"],[0,0,0,0,0,0,0,0,0,"L1_DoubleEG8er2p5_HTT280er"],[0,0,0,0,0,0,0,0,0,"L1_DoubleEG8er2p5_HTT300er"],[0,0,0,0,0,0,0,0,0,"L1_DoubleEG8er2p5_HTT320er"],[0,0,0,0,0,0,0,0,0,"L1_DoubleEG8er2p5_HTT340er"],[0,0,0,0,0,0,0,0,0,"L1_LooseIsoEG22er2p1_IsoTau26er2p1_dR_Min0p3"],[0,0,0,0,0,0,0,0,0,"L1_LooseIsoEG24er2p1_IsoTau27er2p1_dR_Min0p3"],[0,0,0,0,0,0,0,0,0,"L1_LooseIsoEG22er2p1_Tau70er2p1_dR_Min0p3"],[1,1,1,1,1,0,1,1,1,"L1_SingleTau120er2p1"],[1,1,1,1,1,0,1,1,1,"L1_SingleTau130er2p1"],[1,1,1,1,1,0,1,1,1,"L1_DoubleTau70er2p1"],[0,0,0,0,0,0,0,0,0,"L1_DoubleIsoTau28er2p1"],[0,0,0,0,0,0,0,0,0,"L1_DoubleIsoTau30er2p1"],[1,1,1,1,1,0,1,1,1,"L1_DoubleIsoTau32er2p1"],[1,1,1,1,1,0,1,1,1,"L1_DoubleIsoTau34er2p1"],[1,1,1,1,1,0,1,1,1,"L1_DoubleIsoTau36er2p1"],[0,0,0,0,0,0,0,0,0,"L1_DoubleIsoTau28er2p1_Mass_Max90"],[0,0,0,0,0,0,0,0,0,"L1_DoubleIsoTau28er2p1_Mass_Max80"],[0,0,0,0,0,0,0,0,0,"L1_DoubleIsoTau30er2p1_Mass_Max90"],[0,0,0,0,0,0,0,0,0,"L1_DoubleIsoTau30er2p1_Mass_Max80"],[0,0,0,0,0,0,0,0,0,"L1_Mu18er2p1_Tau24er2p1"],[0,0,0,0,0,0,0,0,0,"L1_Mu18er2p1_Tau26er2p1"],[0,0,0,0,0,0,0,0,0,"L1_Mu22er2p1_IsoTau28er2p1"],[0,0,0,0,0,0,0,0,0,"L1_Mu22er2p1_IsoTau30er2p1"],[0,0,0,0,0,0,0,0,0,"L1_Mu22er2p1_IsoTau32er2p1"],[0,0,0,0,0,0,0,0,0,"L1_Mu22er2p1_IsoTau34er2p1"],[0,0,0,0,0,0,0,0,0,"L1_Mu22er2p1_IsoTau36er2p1"],[0,0,0,0,0,0,0,0,0,"L1_Mu22er2p1_IsoTau40er2p1"],[0,0,0,0,0,0,0,0,0,"L1_Mu22er2p1_Tau70er2p1"],[0,0,0,0,0,0,0,0,0,"L1_IsoTau40er2p1_ETMHF80"],[0,0,0,0,0,0,0,0,0,"L1_IsoTau40er2p1_ETMHF90"],[0,0,0,0,0,0,0,0,0,"L1_IsoTau40er2p1_ETMHF100"],[0,0,0,0,0,0,0,0,0,"L1_IsoTau40er2p1_ETMHF110"],[0,0,0,0,0,0,0,0,0,"L1_QuadJet36er2p5_IsoTau52er2p1"],[1,1,1,1,1,0,1,1,1,"L1_SingleJet35"],[1,1,1,1,1,0,1,1,1,"L1_SingleJet60"],[1,1,1,1,1,0,1,1,1,"L1_SingleJet90"],[1,1,1,1000,1000,0,1000,1000,1,"L1_SingleJet120"],[1,1,1,1,1,0,1,1000,1,"L1_SingleJet180"],[1,1,1,1,1,0,1,1000,1,"L1_SingleJet200"],[0,0,0,0,0,0,0,0,0,"L1_SingleJet35er2p5"],[0,0,0,0,0,0,0,0,0,"L1_SingleJet60er2p5"],[0,0,0,0,0,0,0,0,0,"L1_SingleJet90er2p5"],[0,0,0,0,0,0,0,0,0,"L1_SingleJet120er2p5"],[0,0,0,0,0,0,0,0,0,"L1_SingleJet140er2p5"],[0,0,0,0,0,0,0,0,0,"L1_SingleJet160er2p5"],[0,0,0,0,0,0,0,0,0,"L1_SingleJet180er2p5"],[0,0,0,0,0,0,0,0,0,"L1_SingleJet35_FWD3p0"],[0,0,0,0,0,0,0,0,0,"L1_SingleJet60_FWD3p0"],[0,0,0,0,0,0,0,0,0,"L1_SingleJet90_FWD3p0"],[0,0,0,0,0,0,0,0,0,"L1_SingleJet120_FWD3p0"],[0,0,0,0,0,0,0,0,0,"L1_SingleJet8erHE"],[0,0,0,0,0,0,0,0,0,"L1_SingleJet10erHE"],[0,0,0,0,0,0,0,0,0,"L1_SingleJet12erHE"],[0,0,0,0,0,0,0,0,0,"L1_SingleJet140er2p5_ETMHF70"],[0,0,0,0,0,0,0,0,0,"L1_SingleJet140er2p5_ETMHF80"],[0,0,0,0,0,0,0,0,0,"L1_SingleJet140er2p5_ETMHF90"],[0,0,0,0,0,0,0,0,0,"L1_DoubleJet40er2p5"],[0,0,0,0,0,0,0,0,0,"L1_DoubleJet100er2p5"],[0,0,0,0,0,0,0,0,0,"L1_DoubleJet120er2p5"],[0,0,0,0,0,0,0,0,0,"L1_DoubleJet150er2p5"],[0,0,0,0,0,0,0,0,0,"L1_DoubleJet100er2p3_dEta_Max1p6"],[0,0,0,0,0,0,0,0,0,"L1_DoubleJet112er2p3_dEta_Max1p6"],[0,0,0,0,0,0,0,0,0,"L1_DoubleJet30er2p5_Mass_Min150_dEta_Max1p5"],[0,0,0,0,0,0,0,0,0,"L1_DoubleJet30er2p5_Mass_Min200_dEta_Max1p5"],[0,0,0,0,0,0,0,0,0,"L1_DoubleJet30er2p5_Mass_Min250_dEta_Max1p5"],[0,0,0,0,0,0,0,0,0,"L1_DoubleJet30er2p5_Mass_Min300_dEta_Max1p5"],[0,0,0,0,0,0,0,0,0,"L1_DoubleJet30er2p5_Mass_Min330_dEta_Max1p5"],[0,0,0,0,0,0,0,0,0,"L1_DoubleJet30er2p5_Mass_Min360_dEta_Max1p5"],[0,0,0,0,0,0,0,0,0,"L1_DoubleJet_90_30_DoubleJet30_Mass_Min620"],[0,0,0,0,0,0,0,0,0,"L1_DoubleJet_100_30_DoubleJet30_Mass_Min620"],[0,0,0,0,0,0,0,0,0,"L1_DoubleJet_110_35_DoubleJet35_Mass_Min620"],[0,0,0,0,0,0,0,0,0,"L1_DoubleJet_115_40_DoubleJet40_Mass_Min620"],[0,0,0,0,0,0,0,0,0,"L1_DoubleJet_120_45_DoubleJet45_Mass_Min620"],[0,0,0,0,0,0,0,0,0,"L1_DoubleJet_115_40_DoubleJet40_Mass_Min620_Jet60TT28"],[0,0,0,0,0,0,0,0,0,"L1_DoubleJet_120_45_DoubleJet45_Mass_Min620_Jet60TT28"],[0,0,0,0,0,0,0,0,0,"L1_DoubleJet35_Mass_Min450_IsoTau45_RmOvlp"],[0,0,0,0,0,0,0,0,0,"L1_DoubleJet_80_30_Mass_Min420_IsoTau40_RmOvlp"],[0,0,0,0,0,0,0,0,0,"L1_DoubleJet_80_30_Mass_Min420_Mu8"],[0,0,0,0,0,0,0,0,0,"L1_DoubleJet_80_30_Mass_Min420_DoubleMu0_SQ"],[0,0,0,0,0,0,0,0,0,"L1_TripleJet_95_75_65_DoubleJet_75_65_er2p5"],[0,0,0,0,0,0,0,0,0,"L1_TripleJet_100_80_70_DoubleJet_80_70_er2p5"],[0,0,0,0,0,0,0,0,0,"L1_TripleJet_105_85_75_DoubleJet_85_75_er2p5"],[0,0,0,0,0,0,0,0,0,"L1_QuadJet_95_75_65_20_DoubleJet_75_65_er2p5_Jet20_FWD3p0"],[0,0,0,0,0,0,0,0,0,"L1_QuadJet60er2p5"],[0,0,0,0,0,0,0,0,0,"L1_HTT280er_QuadJet_70_55_40_35_er2p4"],[0,0,0,0,0,0,0,0,0,"L1_HTT320er_QuadJet_70_55_40_40_er2p4"],[0,0,0,0,0,0,0,0,0,"L1_HTT320er_QuadJet_80_60_er2p1_45_40_er2p3"],[0,0,0,0,0,0,0,0,0,"L1_HTT320er_QuadJet_80_60_er2p1_50_45_er2p3"],[1,1,1,1,1,0,1,1000,1,"L1_HTT120er"],[1,1,1,1,1,0,1,1000,1,"L1_HTT160er"],[1,1,1,1,1,0,1,1000,1,"L1_HTT200er"],[1,1,1,1,1,0,1,1000,1,"L1_HTT255er"],[1,1,1,1,1,0,1,1000,1,"L1_HTT280er"],[1,1,1,1,1,0,1,1000,1,"L1_HTT320er"],[0,0,0,0,0,0,0,0,0,"L1_HTT360er"],[1,1,1,1,1,0,1,1000,1,"L1_HTT400er"],[1,1,1,1,1,0,1,1000,1,"L1_HTT450er"],[0,0,0,0,0,0,0,0,0,"L1_ETT1200"],[0,0,0,0,0,0,0,0,0,"L1_ETT1600"],[0,0,0,0,0,0,0,0,0,"L1_ETT2000"],[1,1,1,1,1,0,1,1000,1,"L1_ETM120"],[1,1,1,1,1,0,1,1000,1,"L1_ETM150"],[1,1,1,1,1,0,1,1000,1,"L1_ETMHF100"],[1,1,1,1,1,0,1,1000,1,"L1_ETMHF110"],[1,1,1,1,1,0,1,1000,1,"L1_ETMHF120"],[0,0,0,0,0,0,0,0,0,"L1_ETMHF130"],[0,0,0,0,0,0,0,0,0,"L1_ETMHF140"],[1,1,1,1,1,0,1,1000,1,"L1_ETMHF150"],[0,0,0,0,0,0,0,0,0,"L1_ETMHF90_HTT60er"],[0,0,0,0,0,0,0,0,0,"L1_ETMHF100_HTT60er"],[0,0,0,0,0,0,0,0,0,"L1_ETMHF110_HTT60er"],[0,0,0,0,0,0,0,0,0,"L1_ETMHF120_HTT60er"],[0,0,0,0,0,0,0,0,0,"L1_ETMHF130_HTT60er"],[0,0,0,0,0,0,0,0,0,"L1_ETMHF120_NotSecondBunchInTrain"],[0,0,0,0,0,0,0,0,0,"L1_ETMHF110_HTT60er_NotSecondBunchInTrain"],[20,20,20,20,20,0,20,20,20,"L1_SingleMuOpen_NotBptxOR"],[1,1,1,1,1,0,1,1,1000,"L1_SingleMuOpen_er1p4_NotBptxOR_3BX"],[1,1,1,1,1,0,1,1,1000,"L1_SingleMuOpen_er1p1_NotBptxOR_3BX"],[0,0,0,0,0,0,0,0,0,"L1_SingleJet20er2p5_NotBptxOR"],[0,0,0,0,0,0,0,0,0,"L1_SingleJet20er2p5_NotBptxOR_3BX"],[0,0,0,0,0,0,0,0,0,"L1_SingleJet43er2p5_NotBptxOR_3BX"],[0,0,0,0,0,0,0,0,0,"L1_SingleJet46er2p5_NotBptxOR_3BX"],[0,0,0,0,0,0,0,0,0,"L1_AlwaysTrue"],[0,0,0,0,0,0,0,0,0,"L1_ZeroBias"],[0,0,0,0,0,0,0,0,0,"L1_ZeroBias_copy"],[0,0,0,0,0,0,0,0,0,"L1_MinimumBiasHF0_AND_BptxAND"],[0,0,0,0,0,0,0,0,0,"L1_NotBptxOR"],[0,0,0,0,0,0,0,0,0,"L1_BptxOR"],[0,0,0,0,0,0,0,0,0,"L1_BptxXOR"],[0,0,0,0,0,0,0,0,0,"L1_BptxPlus"],[0,0,0,0,0,0,0,0,0,"L1_BptxMinus"],[0,0,0,0,0,0,0,0,0,"L1_UnpairedBunchBptxPlus"],[0,0,0,0,0,0,0,0,0,"L1_UnpairedBunchBptxMinus"],[0,0,0,0,0,0,0,0,0,"L1_IsolatedBunch"],[0,0,0,0,0,0,0,0,0,"L1_FirstBunchBeforeTrain"],[0,0,0,0,0,0,0,0,0,"L1_FirstBunchInTrain"],[0,0,0,0,0,0,0,0,0,"L1_SecondBunchInTrain"],[0,0,0,0,0,0,0,0,0,"L1_SecondLastBunchInTrain"],[0,0,0,0,0,0,0,0,0,"L1_LastBunchInTrain"],[0,0,0,0,0,0,0,0,0,"L1_FirstBunchAfterTrain"],[0,0,0,0,0,0,0,0,0,"L1_LastCollisionInTrain"],[0,0,0,0,0,0,0,0,0,"L1_FirstCollisionInTrain"],[0,0,0,0,0,0,0,0,0,"L1_FirstCollisionInOrbit"],[0,0,0,0,0,0,0,0,0,"L1_BPTX_NotOR_VME"],[0,0,0,0,0,0,0,0,0,"L1_BPTX_OR_Ref3_VME"],[0,0,0,0,0,0,0,0,0,"L1_BPTX_OR_Ref4_VME"],[0,0,0,0,0,0,0,0,0,"L1_BPTX_RefAND_VME"],[0,0,0,0,0,0,0,0,0,"L1_BPTX_AND_Ref1_VME"],[0,0,0,0,0,0,0,0,0,"L1_BPTX_AND_Ref3_VME"],[0,0,0,0,0,0,0,0,0,"L1_BPTX_AND_Ref4_VME"],[0,0,0,0,0,0,0,0,0,"L1_BPTX_BeamGas_Ref1_VME"],[0,0,0,0,0,0,0,0,0,"L1_BPTX_BeamGas_Ref2_VME"],[0,0,0,0,0,0,0,0,0,"L1_BPTX_BeamGas_B1_VME"],[0,0,0,0,0,0,0,0,0,"L1_BPTX_BeamGas_B2_VME"],[0,0,0,0,0,0,0,0,0,"L1_CDC_SingleMu_3_er1p2_TOP120_DPHI2p618_3p142"],[0,0,0,0,0,0,0,0,0,"L1_HCAL_LaserMon_Trig"],[0,0,0,0,0,0,0,0,0,"L1_HCAL_LaserMon_Veto"],[0,0,0,0,0,0,0,0,0,"L1_TOTEM_1"],[0,0,0,0,0,0,0,0,0,"L1_TOTEM_2"],[0,0,0,0,0,0,0,0,0,"L1_TOTEM_3"],[0,0,0,0,0,0,0,0,0,"L1_TOTEM_4"]]}
 reset.clockConfig : default-ext
 reset.clockSource : external
 reset.ttcConfig : external
 roLoadMenu.bank0:wordsPerBx : 6
 roLoadMenu.bank1:wordsPerBx : 6
 roLoadMenu.bank2:wordsPerBx : 6
 roLoadMenu.bank3:wordsPerBx : 6
 roLoadMenu.mode0:capture0:bankId : 1
 roLoadMenu.mode0:capture0:delay : 0
 roLoadMenu.mode0:capture0:enable : true
 roLoadMenu.mode0:capture0:id : 1
 roLoadMenu.mode0:capture0:length : 5
 roLoadMenu.mode0:capture0:readoutLength : 30
 roLoadMenu.mode0:capture1:bankId : 2
 roLoadMenu.mode0:capture1:delay : 0
 roLoadMenu.mode0:capture1:enable : true
 roLoadMenu.mode0:capture1:id : 2
 roLoadMenu.mode0:capture1:length : 5
 roLoadMenu.mode0:capture1:readoutLength : 30
 roLoadMenu.mode0:capture2:bankId : 0
 roLoadMenu.mode0:capture2:delay : 0
 roLoadMenu.mode0:capture2:enable : false
 roLoadMenu.mode0:capture2:id : 0
 roLoadMenu.mode0:capture2:length : 0
 roLoadMenu.mode0:capture2:readoutLength : 0
 roLoadMenu.mode0:capture3:bankId : 0
 roLoadMenu.mode0:capture3:delay : 0
 roLoadMenu.mode0:capture3:enable : false
 roLoadMenu.mode0:capture3:id : 0
 roLoadMenu.mode0:capture3:length : 0
 roLoadMenu.mode0:capture3:readoutLength : 0
 roLoadMenu.mode0:eventSize : 0
 roLoadMenu.mode0:eventToTrigger : 107
 roLoadMenu.mode0:eventType : 193
 roLoadMenu.mode0:tokenDelay : 70
 roLoadMenu.mode1:capture0:bankId : 1
 roLoadMenu.mode1:capture0:delay : 0
 roLoadMenu.mode1:capture0:enable : true
 roLoadMenu.mode1:capture0:id : 1
 roLoadMenu.mode1:capture0:length : 5
 roLoadMenu.mode1:capture0:readoutLength : 30
 roLoadMenu.mode1:capture1:bankId : 2
 roLoadMenu.mode1:capture1:delay : 0
 roLoadMenu.mode1:capture1:enable : false
 roLoadMenu.mode1:capture1:id : 2
 roLoadMenu.mode1:capture1:length : 5
 roLoadMenu.mode1:capture1:readoutLength : 30
 roLoadMenu.mode1:capture2:bankId : 0
 roLoadMenu.mode1:capture2:delay : 0
 roLoadMenu.mode1:capture2:enable : false
 roLoadMenu.mode1:capture2:id : 0
 roLoadMenu.mode1:capture2:length : 0
 roLoadMenu.mode1:capture2:readoutLength : 0
 roLoadMenu.mode1:capture3:bankId : 0
 roLoadMenu.mode1:capture3:delay : 0
 roLoadMenu.mode1:capture3:enable : false
 roLoadMenu.mode1:capture3:id : 0
 roLoadMenu.mode1:capture3:length : 0
 roLoadMenu.mode1:capture3:readoutLength : 0
 roLoadMenu.mode1:eventSize : 0
 roLoadMenu.mode1:eventToTrigger : 1
 roLoadMenu.mode1:eventType : 192
 roLoadMenu.mode1:tokenDelay : 70
 roSetup.bufferHWM : 32
 roSetup.bufferLWM : 16
 roSetup.bxOffset : 2
 roSetup.drain : NaN
 roSetup.fake : NaN
 roSetup.internal : false
 rxExtraFrames : 12
 txExtraFrames : 12
 uGtCalTrigSuppression.begin : 3480
 uGtCalTrigSuppression.end : 3505
 uGtDelay.l1a_latency : 21
 uGtPreparePrescale.otf : 0
 uGtPreparePreviewPrescale.initPreview : true
 uGtPreparePreviewPrescale.otf : 0
 uGtSmartReboot.FWBuildVersion : 1132
 uGtSmartReboot.autoloadfw : true
 uGtTriggerMenuCommand.Xml file path : 
 uGtVersion.uuid : a55448f7-430f-4308-91f2-5dd4d886290b
 vetoMask : {"rows":1,"cols":2,"definition":[["algo","string"],["veto","unsigned int"]],"data":[["ALL",0]]}
----------------------------------------------------------------------------------------------------
----------------------------------------------------------------------------------------------------
CONTEXT (parameters) : uGT.uGtFinorPreviewProc
----------------------------------------------------------------------------------------------------
 resetBoard.clockSource : external
 roSetup.bufferHWM : 32
 roSetup.bufferLWM : 16
 roSetup.bxOffset : 2
 roSetup.drain : NaN
 roSetup.fake : NaN
 roSetup.internal : false
----------------------------------------------------------------------------------------------------
----------------------------------------------------------------------------------------------------
CONTEXT (parameters) : uGT.MP7_slot2
----------------------------------------------------------------------------------------------------
 sdfile : gt_mp7_xe_v1132_module_1.bin
 uGtVersion.module_id : 1
----------------------------------------------------------------------------------------------------
----------------------------------------------------------------------------------------------------
CONTEXT (parameters) : uGT.uGtFinorProcessor
----------------------------------------------------------------------------------------------------
 resetBoard.clockSource : external
 roSetup.bufferHWM : 32
 roSetup.bufferLWM : 16
 roSetup.bxOffset : 2
 roSetup.drain : NaN
 roSetup.fake : NaN
 roSetup.internal : false
----------------------------------------------------------------------------------------------------
----------------------------------------------------------------------------------------------------
CONTEXT (parameters) : uGT.ExtCond_slot12
----------------------------------------------------------------------------------------------------
 uGtExtCondDelay.delay_00 : 77
 uGtExtCondDelay.delay_01 : 77
 uGtExtCondDelay.delay_02 : 74
 uGtExtCondDelay.delay_03 : 74
 uGtExtCondDelay.delay_04 : 77
 uGtExtCondDelay.delay_05 : 77
 uGtExtCondDelay.delay_06 : 77
 uGtExtCondDelay.delay_07 : 77
 uGtExtCondDelay.delay_08 : 77
 uGtExtCondDelay.delay_09 : 76
 uGtExtCondDelay.delay_10 : 76
 uGtExtCondDelay.delay_11 : 77
 uGtExtCondDelay.delay_12 : 79
 uGtExtCondDelay.delay_13 : 79
 uGtExtCondDelay.delay_14 : 79
 uGtExtCondDelay.delay_15 : 79
 uGtExtCondDelay.delay_16 : 75
 uGtExtCondDelay.delay_17 : 75
 uGtExtCondDelay.delay_18 : 75
 uGtExtCondDelay.delay_19 : 77
 uGtExtCondDelay.delay_20 : 76
 uGtExtCondDelay.delay_21 : 76
 uGtExtCondDelay.delay_22 : 75
 uGtExtCondDelay.delay_23 : 76
 uGtExtCondDelay.delay_24 : 78
 uGtExtCondDelay.delay_25 : 78
 uGtExtCondDelay.delay_26 : 78
 uGtExtCondDelay.delay_27 : 78
 uGtExtCondDelay.delay_28 : 78
 uGtExtCondDelay.delay_29 : 78
 uGtExtCondDelay.delay_30 : 78
 uGtExtCondDelay.delay_31 : 78
 uGtExtCondDelay.delay_32 : 8
 uGtExtCondDelay.delay_33 : 69
 uGtExtCondDelay.delay_34 : 69
 uGtExtCondDelay.delay_35 : 8
 uGtExtCondDelay.delay_36 : 0
 uGtExtCondDelay.delay_37 : 0
 uGtExtCondDelay.delay_38 : 0
 uGtExtCondDelay.delay_39 : 0
 uGtExtCondDelay.delay_40 : 0
 uGtExtCondDelay.delay_41 : 0
 uGtExtCondDelay.delay_42 : 0
 uGtExtCondDelay.delay_43 : 0
 uGtExtCondDelay.delay_44 : 0
 uGtExtCondDelay.delay_45 : 0
 uGtExtCondDelay.delay_46 : 0
 uGtExtCondDelay.delay_47 : 0
 uGtExtCondDelay.delay_48 : 0
 uGtExtCondDelay.delay_49 : 0
 uGtExtCondDelay.delay_50 : 0
 uGtExtCondDelay.delay_51 : 0
 uGtExtCondDelay.delay_52 : 0
 uGtExtCondDelay.delay_53 : 0
 uGtExtCondDelay.delay_54 : 0
 uGtExtCondDelay.delay_55 : 0
 uGtExtCondDelay.delay_56 : 1
 uGtExtCondDelay.delay_57 : 1
 uGtExtCondDelay.delay_58 : 1
 uGtExtCondDelay.delay_59 : 1
 uGtExtCondDelay.delay_60 : 0
 uGtExtCondDelay.delay_61 : 0
 uGtExtCondDelay.delay_62 : 0
 uGtExtCondDelay.delay_63 : 0
 uGtExtCondPhaseShift.phase_shift_00 : 4
 uGtExtCondPhaseShift.phase_shift_01 : 4
 uGtExtCondPhaseShift.phase_shift_02 : 1
 uGtExtCondPhaseShift.phase_shift_03 : 1
 uGtExtCondPhaseShift.phase_shift_04 : 5
 uGtExtCondPhaseShift.phase_shift_05 : 5
 uGtExtCondPhaseShift.phase_shift_06 : 5
 uGtExtCondPhaseShift.phase_shift_07 : 5
 uGtExtCondPhaseShift.phase_shift_08 : 1
 uGtExtCondPhaseShift.phase_shift_09 : 0
 uGtExtCondPhaseShift.phase_shift_10 : 0
 uGtExtCondPhaseShift.phase_shift_11 : 5
 uGtExtCondPhaseShift.phase_shift_12 : 2
 uGtExtCondPhaseShift.phase_shift_13 : 2
 uGtExtCondPhaseShift.phase_shift_14 : 2
 uGtExtCondPhaseShift.phase_shift_15 : 2
 uGtExtCondPhaseShift.phase_shift_16 : 0
 uGtExtCondPhaseShift.phase_shift_17 : 0
 uGtExtCondPhaseShift.phase_shift_18 : 5
 uGtExtCondPhaseShift.phase_shift_19 : 5
 uGtExtCondPhaseShift.phase_shift_20 : 5
 uGtExtCondPhaseShift.phase_shift_21 : 5
 uGtExtCondPhaseShift.phase_shift_22 : 2
 uGtExtCondPhaseShift.phase_shift_23 : 5
 uGtExtCondPhaseShift.phase_shift_24 : 1
 uGtExtCondPhaseShift.phase_shift_25 : 1
 uGtExtCondPhaseShift.phase_shift_26 : 1
 uGtExtCondPhaseShift.phase_shift_27 : 1
 uGtExtCondPhaseShift.phase_shift_28 : 1
 uGtExtCondPhaseShift.phase_shift_29 : 1
 uGtExtCondPhaseShift.phase_shift_30 : 1
 uGtExtCondPhaseShift.phase_shift_31 : 1
 uGtExtCondPhaseShift.phase_shift_32 : 2
 uGtExtCondPhaseShift.phase_shift_33 : 2
 uGtExtCondPhaseShift.phase_shift_34 : 2
 uGtExtCondPhaseShift.phase_shift_35 : 2
 uGtExtCondPhaseShift.phase_shift_36 : 1
 uGtExtCondPhaseShift.phase_shift_37 : 1
 uGtExtCondPhaseShift.phase_shift_38 : 1
 uGtExtCondPhaseShift.phase_shift_39 : 1
 uGtExtCondPhaseShift.phase_shift_40 : 1
 uGtExtCondPhaseShift.phase_shift_41 : 1
 uGtExtCondPhaseShift.phase_shift_42 : 1
 uGtExtCondPhaseShift.phase_shift_43 : 1
 uGtExtCondPhaseShift.phase_shift_44 : 1
 uGtExtCondPhaseShift.phase_shift_45 : 1
 uGtExtCondPhaseShift.phase_shift_46 : 1
 uGtExtCondPhaseShift.phase_shift_47 : 1
 uGtExtCondPhaseShift.phase_shift_48 : 1
 uGtExtCondPhaseShift.phase_shift_49 : 1
 uGtExtCondPhaseShift.phase_shift_50 : 1
 uGtExtCondPhaseShift.phase_shift_51 : 1
 uGtExtCondPhaseShift.phase_shift_52 : 1
 uGtExtCondPhaseShift.phase_shift_53 : 1
 uGtExtCondPhaseShift.phase_shift_54 : 1
 uGtExtCondPhaseShift.phase_shift_55 : 1
 uGtExtCondPhaseShift.phase_shift_56 : 2
 uGtExtCondPhaseShift.phase_shift_57 : 2
 uGtExtCondPhaseShift.phase_shift_58 : 2
 uGtExtCondPhaseShift.phase_shift_59 : 2
 uGtExtCondPhaseShift.phase_shift_60 : 1
 uGtExtCondPhaseShift.phase_shift_61 : 1
 uGtExtCondPhaseShift.phase_shift_62 : 1
 uGtExtCondPhaseShift.phase_shift_63 : 1
----------------------------------------------------------------------------------------------------
----------------------------------------------------------------------------------------------------
CONTEXT (parameters) : uGT.processors
----------------------------------------------------------------------------------------------------
 l1menu : {"rows":357,"cols":4,"definition":[["AlgoName","string"],["GlobalIndex","unsigned int"],["LocalIndex","unsigned int"],["ModuleIndex","unsigned int"]],"data":[["L1_AlwaysTrue",458,0,0],["L1_BPTX_AND_Ref1_VME",486,0,1],["L1_BPTX_AND_Ref3_VME",487,1,1],["L1_BPTX_AND_Ref4_VME",488,2,1],["L1_BPTX_BeamGas_B1_VME",491,3,1],["L1_BPTX_BeamGas_B2_VME",492,4,1],["L1_BPTX_BeamGas_Ref1_VME",489,5,1],["L1_BPTX_BeamGas_Ref2_VME",490,6,1],["L1_BPTX_NotOR_VME",482,7,1],["L1_BPTX_OR_Ref3_VME",483,8,1],["L1_BPTX_OR_Ref4_VME",484,9,1],["L1_BPTX_RefAND_VME",485,10,1],["L1_BptxMinus",467,11,1],["L1_BptxOR",464,39,0],["L1_BptxPlus",466,13,1],["L1_BptxXOR",465,12,1],["L1_CDC_SingleMu_3_er1p2_TOP120_DPHI2p618_3p142",494,42,5],["L1_DoubleEG8er2p5_HTT260er",247,70,0],["L1_DoubleEG8er2p5_HTT280er",248,65,0],["L1_DoubleEG8er2p5_HTT300er",249,69,0],["L1_DoubleEG8er2p5_HTT320er",250,73,0],["L1_DoubleEG8er2p5_HTT340er",251,3,0],["L1_DoubleEG_15_10_er2p5",205,40,1],["L1_DoubleEG_20_10_er2p5",206,15,4],["L1_DoubleEG_22_10_er2p5",207,13,5],["L1_DoubleEG_25_12_er2p5",208,41,1],["L1_DoubleEG_25_14_er2p5",209,16,4],["L1_DoubleEG_27_14_er2p5",210,18,2],["L1_DoubleEG_LooseIso20_10_er2p5",212,14,5],["L1_DoubleEG_LooseIso22_10_er2p5",213,42,1],["L1_DoubleEG_LooseIso22_12_er2p5",214,17,4],["L1_DoubleEG_LooseIso25_12_er2p5",215,19,2],["L1_DoubleIsoTau28er2p1",269,15,5],["L1_DoubleIsoTau28er2p1_Mass_Max80",275,51,4],["L1_DoubleIsoTau28er2p1_Mass_Max90",274,43,5],["L1_DoubleIsoTau30er2p1",270,43,1],["L1_DoubleIsoTau30er2p1_Mass_Max80",277,76,0],["L1_DoubleIsoTau30er2p1_Mass_Max90",276,56,2],["L1_DoubleIsoTau32er2p1",271,18,4],["L1_DoubleIsoTau34er2p1",272,20,2],["L1_DoubleIsoTau36er2p1",273,16,5],["L1_DoubleJet100er2p3_dEta_Max1p6",345,47,4],["L1_DoubleJet100er2p5",341,44,1],["L1_DoubleJet112er2p3_dEta_Max1p6",346,39,5],["L1_DoubleJet120er2p5",342,19,4],["L1_DoubleJet150er2p5",343,21,2],["L1_DoubleJet30er2p5_Mass_Min150_dEta_Max1p5",348,57,2],["L1_DoubleJet30er2p5_Mass_Min200_dEta_Max1p5",349,85,1],["L1_DoubleJet30er2p5_Mass_Min250_dEta_Max1p5",350,53,4],["L1_DoubleJet30er2p5_Mass_Min300_dEta_Max1p5",351,45,5],["L1_DoubleJet30er2p5_Mass_Min330_dEta_Max1p5",352,78,0],["L1_DoubleJet30er2p5_Mass_Min360_dEta_Max1p5",353,58,2],["L1_DoubleJet35_Mass_Min450_IsoTau45_RmOvlp",363,82,0],["L1_DoubleJet40er2p5",340,60,0],["L1_DoubleJet_100_30_DoubleJet30_Mass_Min620",356,83,1],["L1_DoubleJet_110_35_DoubleJet35_Mass_Min620",357,52,4],["L1_DoubleJet_115_40_DoubleJet40_Mass_Min620",358,44,5],["L1_DoubleJet_115_40_DoubleJet40_Mass_Min620_Jet60TT28",360,10,3],["L1_DoubleJet_120_45_DoubleJet45_Mass_Min620",359,77,0],["L1_DoubleJet_120_45_DoubleJet45_Mass_Min620_Jet60TT28",361,11,3],["L1_DoubleJet_80_30_Mass_Min420_DoubleMu0_SQ",366,35,5],["L1_DoubleJet_80_30_Mass_Min420_IsoTau40_RmOvlp",364,62,2],["L1_DoubleJet_80_30_Mass_Min420_Mu8",365,36,5],["L1_DoubleJet_90_30_DoubleJet30_Mass_Min620",355,84,1],["L1_DoubleLooseIsoEG22er2p1",217,17,5],["L1_DoubleLooseIsoEG24er2p1",218,45,1],["L1_DoubleMu0",40,63,1],["L1_DoubleMu0_Mass_Min1",43,41,5],["L1_DoubleMu0_OQ",39,38,2],["L1_DoubleMu0_SQ",41,34,5],["L1_DoubleMu0_SQ_OS",42,64,1],["L1_DoubleMu0_dR_Max1p6_Jet90er2p5_dR_Max0p8",142,57,4],["L1_DoubleMu0er1p4_SQ_OS_dR_Max1p4",59,52,2],["L1_DoubleMu0er1p5_SQ",55,39,2],["L1_DoubleMu0er1p5_SQ_OS",56,65,1],["L1_DoubleMu0er1p5_SQ_OS_dR_Max1p4",58,79,1],["L1_DoubleMu0er1p5_SQ_dR_Max1p4",57,48,4],["L1_DoubleMu0er2p0_SQ_OS_dR_Max1p4",54,40,5],["L1_DoubleMu0er2p0_SQ_dR_Max1p4",53,53,2],["L1_DoubleMu18er2p1",51,40,2],["L1_DoubleMu3_OS_DoubleEG7p5Upsilon",112,55,4],["L1_DoubleMu3_SQ_ETMHF50_HTT60er",145,21,0],["L1_DoubleMu3_SQ_ETMHF50_Jet60er2p5",147,27,0],["L1_DoubleMu3_SQ_ETMHF50_Jet60er2p5_OR_DoubleJet40er2p5",146,36,0],["L1_DoubleMu3_SQ_ETMHF60_Jet60er2p5",148,42,0],["L1_DoubleMu3_SQ_HTT220er",150,19,0],["L1_DoubleMu3_SQ_HTT240er",151,49,0],["L1_DoubleMu3_SQ_HTT260er",152,55,0],["L1_DoubleMu3_dR_Max1p6_Jet90er2p5_dR_Max0p8",143,49,5],["L1_DoubleMu4_SQ_EG9er2p5",109,45,2],["L1_DoubleMu4_SQ_OS",60,66,1],["L1_DoubleMu4_SQ_OS_dR_Max1p2",61,80,1],["L1_DoubleMu4p5_SQ_OS",62,41,2],["L1_DoubleMu4p5_SQ_OS_dR_Max1p2",63,49,4],["L1_DoubleMu4p5er2p0_SQ_OS",64,67,1],["L1_DoubleMu4p5er2p0_SQ_OS_Mass7to18",66,54,2],["L1_DoubleMu4p5er2p0_SQ_OS_Mass_Min7",65,81,1],["L1_DoubleMu5Upsilon_OS_DoubleEG3",113,47,5],["L1_DoubleMu5_SQ_EG9er2p5",110,46,2],["L1_DoubleMu8_SQ",44,42,2],["L1_DoubleMu9_SQ",45,68,1],["L1_DoubleMu_12_5",46,43,2],["L1_DoubleMu_15_5_SQ",47,69,1],["L1_DoubleMu_15_7",48,44,2],["L1_DoubleMu_15_7_Mass_Min1",50,50,4],["L1_DoubleMu_15_7_SQ",49,70,1],["L1_DoubleTau70er2p1",267,20,4],["L1_ETM120",416,25,1],["L1_ETM150",417,0,2],["L1_ETMHF100",421,72,0],["L1_ETMHF100_HTT60er",429,61,0],["L1_ETMHF110",422,4,0],["L1_ETMHF110_HTT60er",430,6,0],["L1_ETMHF110_HTT60er_NotSecondBunchInTrain",444,25,0],["L1_ETMHF120",423,7,0],["L1_ETMHF120_HTT60er",431,22,0],["L1_ETMHF120_NotSecondBunchInTrain",443,44,0],["L1_ETMHF130",424,15,0],["L1_ETMHF130_HTT60er",432,17,0],["L1_ETMHF140",425,0,3],["L1_ETMHF150",426,0,4],["L1_ETMHF90_HTT60er",428,30,0],["L1_ETT1200",410,0,5],["L1_ETT1600",411,26,1],["L1_ETT2000",412,1,2],["L1_FirstBunchAfterTrain",477,68,0],["L1_FirstBunchBeforeTrain",472,1,0],["L1_FirstBunchInTrain",473,66,0],["L1_FirstCollisionInOrbit",480,14,1],["L1_FirstCollisionInTrain",479,15,1],["L1_HCAL_LaserMon_Trig",500,16,1],["L1_HCAL_LaserMon_Veto",501,17,1],["L1_HTT120er",398,1,3],["L1_HTT160er",399,1,4],["L1_HTT200er",400,1,5],["L1_HTT255er",401,27,1],["L1_HTT280er",402,54,0],["L1_HTT280er_QuadJet_70_55_40_35_er2p4",384,57,0],["L1_HTT320er",403,62,0],["L1_HTT320er_QuadJet_70_55_40_40_er2p4",385,64,0],["L1_HTT320er_QuadJet_80_60_er2p1_45_40_er2p3",386,14,0],["L1_HTT320er_QuadJet_80_60_er2p1_50_45_er2p3",387,2,0],["L1_HTT360er",404,2,2],["L1_HTT400er",405,2,3],["L1_HTT450er",406,2,4],["L1_IsoEG32er2p5_Mt40",197,37,5],["L1_IsoEG32er2p5_Mt44",198,46,4],["L1_IsoEG32er2p5_Mt48",199,38,5],["L1_IsoTau40er2p1_ETMHF100",293,13,0],["L1_IsoTau40er2p1_ETMHF110",294,40,0],["L1_IsoTau40er2p1_ETMHF80",291,47,0],["L1_IsoTau40er2p1_ETMHF90",292,50,0],["L1_IsolatedBunch",471,67,0],["L1_LastBunchInTrain",476,63,0],["L1_LastCollisionInTrain",478,18,1],["L1_LooseIsoEG22er2p1_IsoTau26er2p1_dR_Min0p3",257,86,1],["L1_LooseIsoEG22er2p1_Tau70er2p1_dR_Min0p3",259,54,4],["L1_LooseIsoEG24er2p1_HTT100er",238,15,2],["L1_LooseIsoEG24er2p1_IsoTau27er2p1_dR_Min0p3",258,46,5],["L1_LooseIsoEG26er2p1_HTT100er",239,14,2],["L1_LooseIsoEG26er2p1_Jet34er2p5_dR_Min0p3",234,79,0],["L1_LooseIsoEG28er2p1_HTT100er",240,17,2],["L1_LooseIsoEG28er2p1_Jet34er2p5_dR_Min0p3",235,59,2],["L1_LooseIsoEG30er2p1_HTT100er",241,16,2],["L1_LooseIsoEG30er2p1_Jet34er2p5_dR_Min0p3",236,87,1],["L1_MinimumBiasHF0_AND_BptxAND",461,29,0],["L1_Mu0upt0",300,25,2],["L1_Mu0upt10",302,21,5],["L1_Mu0upt100",305,49,1],["L1_Mu0upt20",303,24,4],["L1_Mu0upt20ip0",153,26,2],["L1_Mu0upt20ip03",157,22,5],["L1_Mu0upt20ip1",154,50,1],["L1_Mu0upt20ip2",155,25,4],["L1_Mu0upt20ip3",156,27,2],["L1_Mu0upt5",301,23,5],["L1_Mu0upt50",304,51,1],["L1_Mu10er2p3_Jet32er2p3_dR_Max0p4_DoubleJet32er2p3_dEta_Max1p6",134,61,2],["L1_Mu12er2p3_Jet40er2p1_dR_Max0p4_DoubleJet40er2p1_dEta_Max1p6",136,12,3],["L1_Mu12er2p3_Jet40er2p3_dR_Max0p4_DoubleJet40er2p3_dEta_Max1p6",135,89,1],["L1_Mu18er2p1_Tau24er2p1",279,61,1],["L1_Mu18er2p1_Tau26er2p1",280,62,1],["L1_Mu20_EG10er2p5",99,3,5],["L1_Mu22er2p1_IsoTau28er2p1",282,24,0],["L1_Mu22er2p1_IsoTau30er2p1",283,31,0],["L1_Mu22er2p1_IsoTau32er2p1",284,38,0],["L1_Mu22er2p1_IsoTau34er2p1",285,45,0],["L1_Mu22er2p1_IsoTau36er2p1",286,51,0],["L1_Mu22er2p1_IsoTau40er2p1",287,56,0],["L1_Mu22er2p1_Tau70er2p1",289,59,0],["L1_Mu3_Jet120er2p5_dR_Max0p4",126,80,0],["L1_Mu3_Jet120er2p5_dR_Max0p8",125,60,2],["L1_Mu3_Jet16er2p5_dR_Max0p4",121,88,1],["L1_Mu3_Jet30er2p5",119,57,1],["L1_Mu3_Jet35er2p5_dR_Max0p4",122,56,4],["L1_Mu3_Jet60er2p5_dR_Max0p4",123,48,5],["L1_Mu3_Jet80er2p5_dR_Max0p4",124,81,0],["L1_Mu3er1p5_Jet100er2p5_ETMHF40",128,11,0],["L1_Mu3er1p5_Jet100er2p5_ETMHF50",129,16,0],["L1_Mu5_EG23er2p5",96,33,4],["L1_Mu5_LooseIsoEG20er2p5",100,37,4],["L1_Mu6_DoubleEG10er2p5",104,26,0],["L1_Mu6_DoubleEG12er2p5",105,32,0],["L1_Mu6_DoubleEG15er2p5",106,41,0],["L1_Mu6_DoubleEG17er2p5",107,48,0],["L1_Mu6_HTT240er",131,53,0],["L1_Mu6_HTT250er",132,58,0],["L1_Mu7_EG20er2p5",97,32,4],["L1_Mu7_EG23er2p5",98,35,4],["L1_Mu7_LooseIsoEG20er2p5",101,36,4],["L1_Mu7_LooseIsoEG23er2p5",102,38,4],["L1_NotBptxOR",463,74,0],["L1_QuadJet36er2p5_IsoTau52er2p1",298,82,1],["L1_QuadJet60er2p5",382,55,2],["L1_QuadJet_95_75_65_20_DoubleJet_75_65_er2p5_Jet20_FWD3p0",376,41,4],["L1_QuadMu0",89,43,4],["L1_QuadMu0_OQ",88,44,4],["L1_QuadMu0_SQ",90,45,4],["L1_SecondBunchInTrain",474,33,0],["L1_SecondLastBunchInTrain",475,37,0],["L1_SingleEG10er2p5",160,2,5],["L1_SingleEG15er2p5",161,28,1],["L1_SingleEG26er2p5",162,3,2],["L1_SingleEG28_FWD2p5",163,22,2],["L1_SingleEG28er1p5",166,3,3],["L1_SingleEG28er2p1",165,3,4],["L1_SingleEG28er2p5",164,29,1],["L1_SingleEG34er2p5",167,4,2],["L1_SingleEG36er2p5",168,4,3],["L1_SingleEG38er2p5",169,4,4],["L1_SingleEG40er2p5",170,30,1],["L1_SingleEG42er2p5",171,5,2],["L1_SingleEG45er2p5",172,5,3],["L1_SingleEG50",173,5,4],["L1_SingleEG60",174,31,1],["L1_SingleEG8er2p5",159,6,2],["L1_SingleIsoEG24er1p5",184,6,3],["L1_SingleIsoEG24er2p1",183,6,4],["L1_SingleIsoEG26er1p5",187,32,1],["L1_SingleIsoEG26er2p1",186,7,2],["L1_SingleIsoEG26er2p5",185,7,3],["L1_SingleIsoEG28_FWD2p5",188,18,5],["L1_SingleIsoEG28er1p5",191,7,4],["L1_SingleIsoEG28er2p1",190,5,5],["L1_SingleIsoEG28er2p5",189,33,1],["L1_SingleIsoEG30er2p1",193,8,2],["L1_SingleIsoEG30er2p5",192,8,3],["L1_SingleIsoEG32er2p1",195,8,4],["L1_SingleIsoEG32er2p5",194,6,5],["L1_SingleIsoEG34er2p5",196,34,1],["L1_SingleJet10erHE",330,9,2],["L1_SingleJet120",312,9,3],["L1_SingleJet120_FWD3p0",327,46,1],["L1_SingleJet120er2p5",319,9,4],["L1_SingleJet12erHE",331,7,5],["L1_SingleJet140er2p5",320,34,0],["L1_SingleJet140er2p5_ETMHF70",332,20,0],["L1_SingleJet140er2p5_ETMHF80",333,46,0],["L1_SingleJet140er2p5_ETMHF90",334,52,0],["L1_SingleJet160er2p5",321,35,1],["L1_SingleJet180",313,10,2],["L1_SingleJet180er2p5",322,10,4],["L1_SingleJet200",314,8,5],["L1_SingleJet20er2p5_NotBptxOR",450,71,0],["L1_SingleJet20er2p5_NotBptxOR_3BX",451,10,0],["L1_SingleJet35",309,36,1],["L1_SingleJet35_FWD3p0",324,21,4],["L1_SingleJet35er2p5",316,11,2],["L1_SingleJet43er2p5_NotBptxOR_3BX",452,28,0],["L1_SingleJet46er2p5_NotBptxOR_3BX",453,35,0],["L1_SingleJet60",310,11,4],["L1_SingleJet60_FWD3p0",325,23,2],["L1_SingleJet60er2p5",317,43,0],["L1_SingleJet8erHE",329,9,5],["L1_SingleJet90",311,37,1],["L1_SingleJet90_FWD3p0",326,19,5],["L1_SingleJet90er2p5",318,12,2],["L1_SingleLooseIsoEG26er1p5",176,12,4],["L1_SingleLooseIsoEG26er2p5",175,10,5],["L1_SingleLooseIsoEG28_FWD2p5",177,47,1],["L1_SingleLooseIsoEG28er1p5",180,38,1],["L1_SingleLooseIsoEG28er2p1",179,13,2],["L1_SingleLooseIsoEG28er2p5",178,13,4],["L1_SingleLooseIsoEG30er1p5",182,11,5],["L1_SingleLooseIsoEG30er2p5",181,39,1],["L1_SingleMu0_BMTF",6,26,4],["L1_SingleMu0_DQ",5,28,2],["L1_SingleMu0_EMTF",8,24,5],["L1_SingleMu0_OMTF",7,52,1],["L1_SingleMu10er1p5",29,27,4],["L1_SingleMu12_DQ_BMTF",13,29,2],["L1_SingleMu12_DQ_EMTF",15,25,5],["L1_SingleMu12_DQ_OMTF",14,53,1],["L1_SingleMu12er1p5",30,28,4],["L1_SingleMu14er1p5",31,30,2],["L1_SingleMu15_DQ",16,26,5],["L1_SingleMu16er1p5",32,54,1],["L1_SingleMu18",17,29,4],["L1_SingleMu18er1p5",33,31,2],["L1_SingleMu20",18,4,5],["L1_SingleMu22",19,27,5],["L1_SingleMu22_BMTF",20,55,1],["L1_SingleMu22_EMTF",22,30,4],["L1_SingleMu22_OMTF",21,32,2],["L1_SingleMu25",23,28,5],["L1_SingleMu3",9,56,1],["L1_SingleMu5",10,31,4],["L1_SingleMu6er1p5",25,33,2],["L1_SingleMu7",12,34,4],["L1_SingleMu7_DQ",11,29,5],["L1_SingleMu7er1p5",26,58,1],["L1_SingleMu8er1p5",27,34,2],["L1_SingleMu9er1p5",28,30,5],["L1_SingleMuCosmics",0,59,1],["L1_SingleMuCosmics_BMTF",1,35,2],["L1_SingleMuCosmics_EMTF",3,31,5],["L1_SingleMuCosmics_OMTF",2,60,1],["L1_SingleMuOpen",4,5,0],["L1_SingleMuOpen_NotBptxOR",446,9,0],["L1_SingleMuOpen_er1p1_NotBptxOR_3BX",448,18,0],["L1_SingleMuOpen_er1p4_NotBptxOR_3BX",447,23,0],["L1_SingleMuOpenupt100",308,36,2],["L1_SingleMuOpenupt20",307,32,5],["L1_SingleMuOpenupt5",306,39,4],["L1_SingleTau120er2p1",264,14,4],["L1_SingleTau130er2p1",265,12,5],["L1_TOTEM_1",503,19,1],["L1_TOTEM_2",504,20,1],["L1_TOTEM_3",505,21,1],["L1_TOTEM_4",506,22,1],["L1_TripleEG16er2p5",228,22,4],["L1_TripleEG_16_12_8_er2p5",224,24,2],["L1_TripleEG_16_15_8_er2p5",225,20,5],["L1_TripleEG_18_17_8_er2p5",226,48,1],["L1_TripleEG_18_18_12_er2p5",227,23,4],["L1_TripleJet_100_80_70_DoubleJet_80_70_er2p5",373,37,2],["L1_TripleJet_105_85_75_DoubleJet_85_75_er2p5",374,33,5],["L1_TripleJet_95_75_65_DoubleJet_75_65_er2p5",372,40,4],["L1_TripleMu0",72,71,1],["L1_TripleMu0_OQ",71,47,2],["L1_TripleMu0_SQ",73,72,1],["L1_TripleMu3",74,48,2],["L1_TripleMu3_SQ",75,73,1],["L1_TripleMu_5SQ_3SQ_0OQ",76,49,2],["L1_TripleMu_5SQ_3SQ_0OQ_DoubleMu_5_3_SQ_OS_Mass_Max9",85,51,2],["L1_TripleMu_5SQ_3SQ_0_DoubleMu_5_3_SQ_OS_Mass_Max9",86,50,2],["L1_TripleMu_5_3_3",78,74,1],["L1_TripleMu_5_3_3_SQ",79,75,1],["L1_TripleMu_5_3p5_2p5",77,76,1],["L1_TripleMu_5_3p5_2p5_DoubleMu_5_2p5_OS_Mass_5to17",83,78,1],["L1_TripleMu_5_3p5_2p5_OQ_DoubleMu_5_2p5_OQ_OS_Mass_5to17",82,75,0],["L1_TripleMu_5_4_2p5_DoubleMu_5_2p5_OS_Mass_5to17",84,77,1],["L1_TripleMu_5_5_3",80,42,4],["L1_UnpairedBunchBptxMinus",469,23,1],["L1_UnpairedBunchBptxPlus",468,24,1],["L1_ZeroBias",459,8,0],["L1_ZeroBias_copy",460,12,0]]}
 menu_name : L1Menu_Collisions2020_v0_1_2
 uuid_fw : ac2706bf-9e49-4bab-9185-ab61982ba331
----------------------------------------------------------------------------------------------------
----------------------------------------------------------------------------------------------------
CONTEXT (parameters) : uGT.MP7_slot1
----------------------------------------------------------------------------------------------------
 roLoadMenu.mode1:capture1:enable : true
 sdfile : gt_mp7_xe_v1132_module_0.bin
 uGtVersion.module_id : 0
----------------------------------------------------------------------------------------------------
----------------------------------------------------------------------------------------------------
CONTEXT (parameters) : uGT.uGtExtCondProcessor
----------------------------------------------------------------------------------------------------
 cfgDVFormatter.ids : ExtCondTx[00:08]
 cfgDVFormatter.startBx : 3517
 cfgDVFormatter.startCycle : 5
 cfgDVFormatter.stopBx : 3512
 cfgDVFormatter.stopCycle : 5
 cfgTxBuffers.ids : ExtCondTx[00:08]
 cfgTxBuffers.mode : Latency
 cfgTxBuffers.payload : 
 cfgTxBuffers.startBx : 0
 cfgTxBuffers.startCycle : 0
 cfgTxBuffers.stopBx : NaN
 cfgTxBuffers.stopCycle : NaN
 cfgTxMGTs.ids : ExtCondTx[00:08]
 cfgTxMGTs.loopback : false
 cfgTxMGTs.orbitTag : true
 cfgTxMGTs.polarity : false
 resetBoard.clockSource : external
 roSetup.bufferHWM : 32
 roSetup.bufferLWM : 16
 roSetup.bxOffset : 2
 roSetup.drain : NaN
 roSetup.fake : NaN
 roSetup.internal : false
----------------------------------------------------------------------------------------------------
----------------------------------------------------------------------------------------------------
CONTEXT (monitoring settings) : uGT.AMC13
----------------------------------------------------------------------------------------------------
 Halted.amcports.amc07 : disabled
 Halted.amcports.amc08 : disabled
 Halted.amcports.amc12 : disabled
----------------------------------------------------------------------------------------------------
----------------------------------------------------------------------------------------------------
CONTEXT (monitoring settings) : uGT.daqttcs
----------------------------------------------------------------------------------------------------
----------------------------------------------------------------------------------------------------
----------------------------------------------------------------------------------------------------
CONTEXT (monitoring settings) : uGT.MP7_slot6
----------------------------------------------------------------------------------------------------
----------------------------------------------------------------------------------------------------
----------------------------------------------------------------------------------------------------
CONTEXT (monitoring settings) : uGT.MP7_slot5
----------------------------------------------------------------------------------------------------
----------------------------------------------------------------------------------------------------
----------------------------------------------------------------------------------------------------
CONTEXT (monitoring settings) : uGT.MP7_slot4
----------------------------------------------------------------------------------------------------
----------------------------------------------------------------------------------------------------
----------------------------------------------------------------------------------------------------
CONTEXT (monitoring settings) : uGT.MP7_slot3
----------------------------------------------------------------------------------------------------
----------------------------------------------------------------------------------------------------
----------------------------------------------------------------------------------------------------
CONTEXT (monitoring settings) : uGT.uGtProcessor
----------------------------------------------------------------------------------------------------
----------------------------------------------------------------------------------------------------
----------------------------------------------------------------------------------------------------
CONTEXT (monitoring settings) : uGT.uGtFinorPreviewProc
----------------------------------------------------------------------------------------------------
----------------------------------------------------------------------------------------------------
----------------------------------------------------------------------------------------------------
CONTEXT (monitoring settings) : uGT.MP7_slot2
----------------------------------------------------------------------------------------------------
----------------------------------------------------------------------------------------------------
----------------------------------------------------------------------------------------------------
CONTEXT (monitoring settings) : uGT.uGtFinorProcessor
----------------------------------------------------------------------------------------------------
----------------------------------------------------------------------------------------------------
----------------------------------------------------------------------------------------------------
CONTEXT (monitoring settings) : uGT.ExtCond_slot12
----------------------------------------------------------------------------------------------------
----------------------------------------------------------------------------------------------------
----------------------------------------------------------------------------------------------------
CONTEXT (monitoring settings) : uGT.processors
----------------------------------------------------------------------------------------------------
 Halted.inputPorts.CaloRx07 : disabled
----------------------------------------------------------------------------------------------------
----------------------------------------------------------------------------------------------------
CONTEXT (monitoring settings) : uGT.MP7_slot1
----------------------------------------------------------------------------------------------------
----------------------------------------------------------------------------------------------------
----------------------------------------------------------------------------------------------------
CONTEXT (monitoring settings) : uGT.uGtExtCondProcessor
----------------------------------------------------------------------------------------------------
----------------------------------------------------------------------------------------------------
----------------------------------------------------------------------------------------------------
CONTEXT (masks) : uGT.AMC13
----------------------------------------------------------------------------------------------------
 amcports.amc07
 amcports.amc08
 amcports.amc12
----------------------------------------------------------------------------------------------------
----------------------------------------------------------------------------------------------------
CONTEXT (masks) : uGT.daqttcs
----------------------------------------------------------------------------------------------------
----------------------------------------------------------------------------------------------------
----------------------------------------------------------------------------------------------------
CONTEXT (masks) : uGT.MP7_slot6
----------------------------------------------------------------------------------------------------
----------------------------------------------------------------------------------------------------
----------------------------------------------------------------------------------------------------
CONTEXT (masks) : uGT.MP7_slot5
----------------------------------------------------------------------------------------------------
----------------------------------------------------------------------------------------------------
----------------------------------------------------------------------------------------------------
CONTEXT (masks) : uGT.MP7_slot4
----------------------------------------------------------------------------------------------------
----------------------------------------------------------------------------------------------------
----------------------------------------------------------------------------------------------------
CONTEXT (masks) : uGT.MP7_slot3
----------------------------------------------------------------------------------------------------
----------------------------------------------------------------------------------------------------
----------------------------------------------------------------------------------------------------
CONTEXT (masks) : uGT.uGtProcessor
----------------------------------------------------------------------------------------------------
----------------------------------------------------------------------------------------------------
----------------------------------------------------------------------------------------------------
CONTEXT (masks) : uGT.uGtFinorPreviewProc
----------------------------------------------------------------------------------------------------
----------------------------------------------------------------------------------------------------
----------------------------------------------------------------------------------------------------
CONTEXT (masks) : uGT.MP7_slot2
----------------------------------------------------------------------------------------------------
----------------------------------------------------------------------------------------------------
----------------------------------------------------------------------------------------------------
CONTEXT (masks) : uGT.uGtFinorProcessor
----------------------------------------------------------------------------------------------------
----------------------------------------------------------------------------------------------------
----------------------------------------------------------------------------------------------------
CONTEXT (masks) : uGT.ExtCond_slot12
----------------------------------------------------------------------------------------------------
----------------------------------------------------------------------------------------------------
----------------------------------------------------------------------------------------------------
CONTEXT (masks) : uGT.processors
----------------------------------------------------------------------------------------------------
 inputPorts.CaloRx07
----------------------------------------------------------------------------------------------------
----------------------------------------------------------------------------------------------------
CONTEXT (masks) : uGT.MP7_slot1
----------------------------------------------------------------------------------------------------
----------------------------------------------------------------------------------------------------
----------------------------------------------------------------------------------------------------
CONTEXT (masks) : uGT.uGtExtCondProcessor
----------------------------------------------------------------------------------------------------
----------------------------------------------------------------------------------------------------